,Country,latitude,age
1,Argentina,-38.416097,31.7
2,Belgium,50.503887,41.4
3,Colombia,4.570868,30
4,France,46.227638,41.4
5,Germany,51.165691,47.1
6,Italy,41.87194,45.5
7,Japan,36.204824,47.3
8,Netherlands,52.132633,42.6
9,Thailand,15.870032,37.7
10,Turkey,38.963745,30.9
